Table of Model Results using kable and kableExtra | Daniel Chen
…
Next, you need to create some kind of ID value for each model you’re creating,
that way when you’re combining everything into a single dataframe,
the estimates are traveling together with the standard error.
Here I’m labeling each model as a number starting with 1.

tidy_tables <- purrr::map2_df(broom_stats_long_filter, 1:length(broom_stats_long_filter),
                              function(x, y) dplyr::mutate(x, mod = y))
tidy_tables

## # A tibble: 26 x 4
##    term        key          value   mod
##    <chr>       <chr>        <dbl> <int>
##  1 (Intercept) estimate   0.920       1
##  2 total_bill  estimate   0.105       1
##  3 (Intercept) std.error  0.160       1
##  4 total_bill  std.error  0.00736     1
##  5 (Intercept) estimate   0.933       2
##  6 total_bill  estimate   0.105       2
##  7 sexMale     estimate  -0.0266      2
##  8 (Intercept) std.error  0.174       2
##  9 total_bill  std.error  0.00746     2
## 10 sexMale     std.error  0.138       2
## # ... with 16 more rows
…
